{
  "_links": {
    "self": {
      "href": "https://apis.sandbox.waytostay.com:25443/properties?active=true&page=1"
    },
    "first": {
      "href": "https://apis.sandbox.waytostay.com:25443/properties?active=true"
    },
    "last": {
      "href": "https://apis.sandbox.waytostay.com:25443/properties?active=true&page=94"
    },
    "next": {
      "href": "https://apis.sandbox.waytostay.com:25443/properties?active=true&page=2"
    }
  },
  "_embedded": {
    "properties": [
      {
        "reference": "016233",
        "active": true,
        "created_timestamp": 1466428433,
        "modified_timestamp": 1466606164,
        "sort_index": 4.86,
        "services": [
          {
            "id": 55,
            "name": "baby cot",
            "on_request": true,
            "extra_cost": false
          },
          {
            "id": 63,
            "name": "high chair",
            "on_request": true,
            "extra_cost": false
          },
          {
            "id": 4,
            "name": "internet via WiFi",
            "on_request": false,
            "extra_cost": false
          },
          {
            "id": 9,
            "name": "national TV",
            "on_request": false,
            "extra_cost": false
          }
        ],
        "general": {
          "name": "Kollwitz Quarter",
          "type": "Apartment",
          "board_type": "RO",
          "licence_number": "",
          "default_photo_url": "https://static.waytostay.com/media/apartments/576/91f3/57691f3ee67e4_extra_extra_large.jpg",
          "sleeps": 4,
          "floors": [
            {
              "id": 2,
              "name": "ground floor"
            }
          ],
          "bedrooms": 2,
          "bathrooms": 1,
          "highlighted_until_timestamp": null,
          "subtype": "SC",
          "number_of_units": 1,
          "sqm": 75,
          "bedding_summary": [
            "1 double bed",
            "2 single bed"
          ],
          "min_stay_default": 3,
          "checkin_time": "15:00:00",
          "checkout_time": "10:00:00",
          "late_checkin_possible": false,
          "late_checkin_from": "00:00:00",
          "late_checkin_to": "01:00:00",
          "late_checkin_fee": 0,
          "cut_off_days": 3,
          "maximum_days_arrival": 365,
          "specific_checkin_fees": "",
          "permissions": {
            "smoking": "not allowed",
            "pets": "not allowed",
            "parties": "not allowed",
            "children": "allowed",
            "young": "allowed"
          }
        },
        "notices": null,
        "review_ratings": {
          "is_new_online": true,
          "reviews": 0,
          "overall": 8,
          "cleaning": 8,
          "comfort": 8,
          "value": 8,
          "cico": 8
        },
        "payment": {
          "payment_options": [
            "full_payment",
            "partial_payment"
          ],
          "currency": "EUR",
          "vat_percent": null,
          "extra_creditcard_charge_percent": 0,
          "damage_deposit_payment_methods": [
            {
              "id": 1,
              "name": "credit card"
            },
            {
              "id": 2,
              "name": "cash"
            }
          ],
          "city_tourist_tax": [],
          "lowest_rate": 110,
          "lowest_rate_pp": 50,
          "arrival_payment_methods": [
            {
              "id": 1,
              "name": "cash"
            }
          ],
          "damage_deposit": 200,
          "fees": [
            {
              "name": "cleaning fee",
              "fee": 75,
              "is_per_day": false,
              "is_per_person": false,
              "fee_cap": null,
              "is_discountable": false
            }
          ]
        },
        "descriptions": {
          "inside": "",
          "outside": "",
          "description": "This is how we would describe our apartment in a few words:\r\nInside:  Outside: \r\nOur apartment Kollwitz Quarter is located in the central and beautiful Prenzlauer Berg area.\r\nThe property is situated on the ground floor (for US guests +1).\r\n\r\nIt’s a great place to discover Berlin and a comfortable place to come home to.\r\nAlso:\r\n- lowest price guarantee \r\n- secure payment, no hidden costs\r\n- amend, cancel and rebook with no extra fees\r\nCheck more specific info about our apartment below the page.\r\n\r\nQuestions or doubts? Please feel free to contact us.\r\n\r\nThe prices are an indication and can be a bit lower or higher because of discounts and seasonal adjustments."
        },
        "waytostay_urls": {
          "general": "https://www.sandbox.waytostay.com:25443/berlin-apartments/kollwitz-quarter-16233/?orgid=1645",
          "location": "https://www.sandbox.waytostay.com:25443/berlin-apartments/kollwitz-quarter-16233/location/?orgid=1645",
          "reviews": "https://www.sandbox.waytostay.com:25443/berlin-apartments/kollwitz-quarter-16233/reviews/?orgid=1645"
        },
        "location": {
          "address": {
            "address": "Hagenauerstrasse  14",
            "postcode": "10435"
          },
          "country": {
            "iso": "de",
            "name": "Germany"
          },
          "city": {
            "id": 11,
            "name": "Berlin"
          },
          "neighbourhood": {
            "id": 278,
            "name": "Prenzlauer Berg"
          },
          "area": {
            "id": 407,
            "name": "Prenzlauer Berg-East"
          },
          "coord": {
            "lat": 52.5394062,
            "lng": 13.4161215
          }
        },
        "facilities_amenities": {
          "facilities": {
            "id": 102,
            "name": "private garden"
          },
          "general": [
            {
              "id": 132,
              "name": "heating"
            },
            {
              "id": 239,
              "name": "washing machine/dryer"
            }
          ],
          "rooms": [
            {
              "type": "Bathroom",
              "label": "bathroom",
              "amenities": [
                {
                  "name": "wc",
                  "amount": 1,
                  "id": 2
                },
                {
                  "name": "hairdryer",
                  "amount": 1,
                  "id": 3
                },
                {
                  "name": "towels",
                  "amount": 1,
                  "id": 15
                },
                {
                  "name": "full bath with shower",
                  "amount": 1,
                  "id": 86
                },
                {
                  "name": "heating",
                  "amount": 1,
                  "id": 132
                },
                {
                  "name": "washbasin(s)",
                  "amount": 1,
                  "id": 229
                }
              ]
            },
            {
              "type": "Bedroom",
              "label": "bedroom",
              "amenities": [
                {
                  "name": "bed linen",
                  "amount": 1,
                  "id": 14
                },
                {
                  "name": "double bed",
                  "amount": 1,
                  "id": 51
                },
                {
                  "name": "wardrobe",
                  "amount": 1,
                  "id": 134
                },
                {
                  "name": "shutters",
                  "amount": 1,
                  "id": 136
                },
                {
                  "name": "extra blankets",
                  "amount": 1,
                  "id": 137
                }
              ]
            },
            {
              "type": "Bedroom",
              "label": "bedroom",
              "amenities": [
                {
                  "name": "bed linen",
                  "amount": 1,
                  "id": 14
                },
                {
                  "name": "single bed",
                  "amount": 2,
                  "id": 61
                },
                {
                  "name": "wardrobe",
                  "amount": 1,
                  "id": 134
                },
                {
                  "name": "extra blankets",
                  "amount": 1,
                  "id": 137
                }
              ]
            },
            {
              "type": "Kitchen",
              "label": "kitchen",
              "amenities": [
                {
                  "name": "garden access",
                  "amount": 1,
                  "id": 7
                },
                {
                  "name": "electric cooker",
                  "amount": 1,
                  "id": 19
                },
                {
                  "name": "complete kitchenware",
                  "amount": 1,
                  "id": 74
                },
                {
                  "name": "oven",
                  "amount": 1,
                  "id": 75
                },
                {
                  "name": "fridge",
                  "amount": 1,
                  "id": 76
                },
                {
                  "name": "microwave",
                  "amount": 1,
                  "id": 77
                },
                {
                  "name": "kettle",
                  "amount": 1,
                  "id": 78
                },
                {
                  "name": "coffee maker",
                  "amount": 1,
                  "id": 79
                },
                {
                  "name": "toaster",
                  "amount": 1,
                  "id": 82
                },
                {
                  "name": "dishwasher",
                  "amount": 1,
                  "id": 83
                },
                {
                  "name": "basic supplies (olive oil, pepper, salt)",
                  "amount": 1,
                  "id": 140
                }
              ]
            },
            {
              "type": "Living room",
              "label": "living room",
              "amenities": [
                {
                  "name": "tv",
                  "amount": 1,
                  "id": 4
                },
                {
                  "name": "sofa",
                  "amount": 1,
                  "id": 59
                },
                {
                  "name": "tv/dvd",
                  "amount": 1,
                  "id": 115
                },
                {
                  "name": "dining table with 4 seats",
                  "amount": 1,
                  "id": 155
                },
                {
                  "name": "coffee table",
                  "amount": 1,
                  "id": 226
                }
              ]
            }
          ],
          "overview": [
            {
              "id": 1,
              "name": "Internet",
              "checked": true
            },
            {
              "id": 2,
              "name": "Pets allowed",
              "checked": false
            },
            {
              "id": 3,
              "name": "Smoking allowed",
              "checked": false
            },
            {
              "id": 4,
              "name": "TV",
              "checked": true
            },
            {
              "id": 5,
              "name": "International TV",
              "checked": false
            },
            {
              "id": 6,
              "name": "DVD",
              "checked": true
            },
            {
              "id": 7,
              "name": "Air conditioning",
              "checked": false
            },
            {
              "id": 8,
              "name": "Heating",
              "checked": true
            },
            {
              "id": 9,
              "name": "Fan",
              "checked": false
            },
            {
              "id": 10,
              "name": "Bed linen",
              "checked": true
            },
            {
              "id": 11,
              "name": "Towels",
              "checked": true
            },
            {
              "id": 12,
              "name": "Baby cot",
              "checked": true
            },
            {
              "id": 13,
              "name": "Washing machine",
              "checked": true
            },
            {
              "id": 14,
              "name": "Dryer",
              "checked": true
            },
            {
              "id": 15,
              "name": "Dishwasher",
              "checked": true
            },
            {
              "id": 16,
              "name": "Microwave",
              "checked": true
            },
            {
              "id": 17,
              "name": "Oven",
              "checked": true
            },
            {
              "id": 18,
              "name": "Complete kitchenware",
              "checked": true
            },
            {
              "id": 19,
              "name": "Balcony",
              "checked": false
            },
            {
              "id": 20,
              "name": "Terrace",
              "checked": false
            },
            {
              "id": 21,
              "name": "Garden",
              "checked": true
            },
            {
              "id": 22,
              "name": "Swimming pool",
              "checked": false
            },
            {
              "id": 23,
              "name": "Parking",
              "checked": false
            },
            {
              "id": 24,
              "name": "Lift",
              "checked": false
            }
          ]
        },
        "_links": {
          "self": {
            "href": "https://apis.sandbox.waytostay.com:25443/properties/016233"
          }
        }
      },
      {
        "reference": "016206",
        "active": true,
        "created_timestamp": 1466010426,
        "modified_timestamp": 1467249003,
        "sort_index": 4.86,
        "services": [
          {
            "id": 4,
            "name": "internet via WiFi",
            "on_request": false,
            "extra_cost": false
          },
          {
            "id": 9,
            "name": "national TV",
            "on_request": false,
            "extra_cost": false
          }
        ],
        "general": {
          "name": "Marylebone Gloucester Place",
          "type": "Apartment",
          "board_type": "RO",
          "licence_number": "",
          "default_photo_url": "https://static.waytostay.com/media/apartments/576/18b8/57618b8eab913_extra_extra_large.jpg",
          "sleeps": 2,
          "floors": [
            {
              "id": 5,
              "name": "2nd floor"
            }
          ],
          "bedrooms": 1,
          "bathrooms": 1,
          "highlighted_until_timestamp": 1469916000,
          "subtype": "SC",
          "number_of_units": 1,
          "sqm": 50,
          "bedding_summary": [
            "1 double bed"
          ],
          "min_stay_default": 3,
          "checkin_time": "15:00:00",
          "checkout_time": "11:00:00",
          "late_checkin_possible": true,
          "late_checkin_from": "18:00:00",
          "late_checkin_to": "09:00:00",
          "late_checkin_fee": 50,
          "cut_off_days": 3,
          "maximum_days_arrival": 365,
          "specific_checkin_fees": "",
          "permissions": {
            "smoking": "not allowed",
            "pets": "not allowed",
            "parties": "not allowed",
            "children": "allowed",
            "young": "not allowed"
          }
        },
        "notices": null,
        "review_ratings": {
          "is_new_online": true,
          "reviews": 0,
          "overall": 8,
          "cleaning": 8,
          "comfort": 8,
          "value": 8,
          "cico": 8
        },
        "payment": {
          "payment_options": [
            "full_payment",
            "partial_payment"
          ],
          "currency": "GBP",
          "vat_percent": null,
          "extra_creditcard_charge_percent": 3,
          "damage_deposit_payment_methods": [
            {
              "id": 1,
              "name": "credit card"
            }
          ],
          "city_tourist_tax": [],
          "lowest_rate": 107,
          "lowest_rate_pp": 54,
          "arrival_payment_methods": [
            {
              "id": 1,
              "name": "cash"
            },
            {
              "id": 2,
              "name": "visa"
            },
            {
              "id": 3,
              "name": "visa electron"
            },
            {
              "id": 4,
              "name": "amex"
            },
            {
              "id": 5,
              "name": "mastercard"
            },
            {
              "id": 6,
              "name": "maestro"
            }
          ],
          "damage_deposit": 0,
          "fees": [
            {
              "name": "cleaning fee",
              "fee": 15,
              "is_per_day": false,
              "is_per_person": false,
              "fee_cap": null,
              "is_discountable": true
            },
            {
              "name": "cleaning fee",
              "fee": 30,
              "is_per_day": false,
              "is_per_person": false,
              "fee_cap": null,
              "is_discountable": false
            }
          ]
        },
        "descriptions": {
          "inside": "",
          "outside": "",
          "description": "This is how we would describe our apartment in a few words:\r\nInside:  Outside: \r\nOur apartment Marylebone Gloucester Place is located in the central and beautiful Westminster area.\r\nThe property is situated on the 2nd floor (for US guests +1).\r\n\r\nIt’s a great place to discover London and a comfortable place to come home to.\r\nAlso:\r\n- lowest price guarantee \r\n- secure payment, no hidden costs\r\n- amend, cancel and rebook with no extra fees\r\nCheck more specific info about our apartment below the page.\r\n\r\nQuestions or doubts? Please feel free to contact us.\r\n\r\nThe prices are an indication and can be a bit lower or higher because of discounts and seasonal adjustments."
        },
        "waytostay_urls": {
          "general": "https://www.sandbox.waytostay.com:25443/london-apartments/marylebone-gloucester-place-16206/?orgid=1645",
          "location": "https://www.sandbox.waytostay.com:25443/london-apartments/marylebone-gloucester-place-16206/location/?orgid=1645",
          "reviews": "https://www.sandbox.waytostay.com:25443/london-apartments/marylebone-gloucester-place-16206/reviews/?orgid=1645"
        },
        "location": {
          "address": {
            "address": "Gloucester Place 80",
            "postcode": "W1U 6HL"
          },
          "country": {
            "iso": "gb",
            "name": "United Kingdom"
          },
          "city": {
            "id": 23,
            "name": "London"
          },
          "neighbourhood": {
            "id": 184,
            "name": "Westminster"
          },
          "area": {
            "id": 237,
            "name": "Marylebone"
          },
          "coord": {
            "lat": 51.5195169,
            "lng": -0.15843540000003
          }
        },
        "facilities_amenities": {
          "facilities": {
            "id": 228,
            "name": "without lift"
          },
          "general": [
            {
              "id": 29,
              "name": "ironing equipment"
            },
            {
              "id": 132,
              "name": "heating"
            },
            {
              "id": 238,
              "name": "washing machine"
            }
          ],
          "rooms": [
            {
              "type": "Bathroom",
              "label": "bathroom",
              "amenities": [
                {
                  "name": "wc",
                  "amount": 1,
                  "id": 2
                },
                {
                  "name": "hairdryer",
                  "amount": 1,
                  "id": 3
                },
                {
                  "name": "towels",
                  "amount": 1,
                  "id": 15
                },
                {
                  "name": "full bath with shower",
                  "amount": 1,
                  "id": 86
                },
                {
                  "name": "heating",
                  "amount": 1,
                  "id": 132
                },
                {
                  "name": "washbasin(s)",
                  "amount": 1,
                  "id": 229
                }
              ]
            },
            {
              "type": "Bedroom",
              "label": "bedroom",
              "amenities": [
                {
                  "name": "bed linen",
                  "amount": 1,
                  "id": 14
                },
                {
                  "name": "double bed",
                  "amount": 1,
                  "id": 51
                }
              ]
            },
            {
              "type": "Kitchen",
              "label": "kitchen",
              "amenities": [
                {
                  "name": "electric cooker",
                  "amount": 1,
                  "id": 19
                },
                {
                  "name": "complete kitchenware",
                  "amount": 1,
                  "id": 74
                },
                {
                  "name": "oven",
                  "amount": 1,
                  "id": 75
                },
                {
                  "name": "fridge",
                  "amount": 1,
                  "id": 76
                },
                {
                  "name": "kettle",
                  "amount": 1,
                  "id": 78
                },
                {
                  "name": "toaster",
                  "amount": 1,
                  "id": 82
                },
                {
                  "name": "freezer",
                  "amount": 1,
                  "id": 125
                }
              ]
            },
            {
              "type": "Living room",
              "label": "living room",
              "amenities": [
                {
                  "name": "tv",
                  "amount": 1,
                  "id": 4
                },
                {
                  "name": "sofa",
                  "amount": 1,
                  "id": 59
                },
                {
                  "name": "wardrobe",
                  "amount": 1,
                  "id": 134
                },
                {
                  "name": "dining table with 4 seats",
                  "amount": 1,
                  "id": 155
                },
                {
                  "name": "coffee table",
                  "amount": 1,
                  "id": 226
                }
              ]
            }
          ],
          "overview": [
            {
              "id": 1,
              "name": "Internet",
              "checked": true
            },
            {
              "id": 2,
              "name": "Pets allowed",
              "checked": false
            },
            {
              "id": 3,
              "name": "Smoking allowed",
              "checked": false
            },
            {
              "id": 4,
              "name": "TV",
              "checked": true
            },
            {
              "id": 5,
              "name": "International TV",
              "checked": false
            },
            {
              "id": 6,
              "name": "DVD",
              "checked": false
            },
            {
              "id": 7,
              "name": "Air conditioning",
              "checked": false
            },
            {
              "id": 8,
              "name": "Heating",
              "checked": true
            },
            {
              "id": 9,
              "name": "Fan",
              "checked": false
            },
            {
              "id": 10,
              "name": "Bed linen",
              "checked": true
            },
            {
              "id": 11,
              "name": "Towels",
              "checked": true
            },
            {
              "id": 12,
              "name": "Baby cot",
              "checked": false
            },
            {
              "id": 13,
              "name": "Washing machine",
              "checked": true
            },
            {
              "id": 14,
              "name": "Dryer",
              "checked": false
            },
            {
              "id": 15,
              "name": "Dishwasher",
              "checked": false
            },
            {
              "id": 16,
              "name": "Microwave",
              "checked": false
            },
            {
              "id": 17,
              "name": "Oven",
              "checked": true
            },
            {
              "id": 18,
              "name": "Complete kitchenware",
              "checked": true
            },
            {
              "id": 19,
              "name": "Balcony",
              "checked": false
            },
            {
              "id": 20,
              "name": "Terrace",
              "checked": false
            },
            {
              "id": 21,
              "name": "Garden",
              "checked": false
            },
            {
              "id": 22,
              "name": "Swimming pool",
              "checked": false
            },
            {
              "id": 23,
              "name": "Parking",
              "checked": false
            },
            {
              "id": 24,
              "name": "Lift",
              "checked": false
            }
          ]
        },
        "_links": {
          "self": {
            "href": "https://apis.sandbox.waytostay.com:25443/properties/016206"
          }
        }
      }
    ]
  },
  "page_count": 94,
  "page_size": 25,
  "total_items": 2350,
  "page": 1
}