{
  "_links": {
    "self": {
      "href": "https://apis.sandbox.waytostay.com:25443/properties/015868/availability?page=2"
    },
    "first": {
      "href": "https://apis.sandbox.waytostay.com:25443/properties/015868/availability"
    },
    "last": {
      "href": "https://apis.sandbox.waytostay.com:25443/properties/015868/availability?page=2"
    }
  },
  "_embedded": {
    "properties_availability": [
      {
        "id": 134,
        "status": "unavailable",
        "start_date": "2018-06-28",
        "end_date": "2018-06-30",
        "notes": "Created from Ical\nResource Id: 3155",
        "modified_timestamp": 1467093099,
        "_links": {
          "self": {
            "href": "https://apis.sandbox.waytostay.com:25443/properties/015868/availability/134"
          }
        }
      },
      {
        "id": 167,
        "status": "unavailable",
        "start_date": "2018-07-01",
        "end_date": "2018-07-03",
        "notes": "Created from Ical\nResource Id: 3155",
        "modified_timestamp": 1467093099,
        "_links": {
          "self": {
            "href": "https://apis.sandbox.waytostay.com:25443/properties/015868/availability/167"
          }
        }
      }
    ]
  },
  "page_count": 2,
  "page_size": 25,
  "total_items": 27,
  "page": 2
}
