{
  "_links": {
    "self": {
      "href": "https://apis.sandbox.waytostay.com:25443/properties/015868/availability?page=1"
    },
    "next": {
      "href": "https://apis.sandbox.waytostay.com:25443/properties/015868/availability?page=2"
    },
    "first": {
      "href": "https://apis.sandbox.waytostay.com:25443/properties/015868/availability"
    },
    "last": {
      "href": "https://apis.sandbox.waytostay.com:25443/properties/015868/availability?page=2"
    }
  },
  "_embedded": {
    "properties_availability": [
      {
        "id": 4694916030134,
        "status": "unavailable",
        "start_date": "2016-06-28",
        "end_date": "2016-06-30",
        "notes": "Created from Ical\nResource Id: 3155",
        "modified_timestamp": 1467093099,
        "_links": {
          "self": {
            "href": "https://apis.sandbox.waytostay.com:25443/properties/015868/availability/4694916030134"
          }
        }
      },
      {
        "id": 6697986030167,
        "status": "unavailable",
        "start_date": "2016-07-01",
        "end_date": "2016-07-03",
        "notes": "Created from Ical\nResource Id: 3155",
        "modified_timestamp": 1467093099,
        "_links": {
          "self": {
            "href": "https://apis.sandbox.waytostay.com:25443/properties/015868/availability/6697986030167"
          }
        }
      },
      {
        "id": 4695916030145,
        "status": "unavailable",
        "start_date": "2016-07-04",
        "end_date": "2016-07-07",
        "notes": "Created from Ical\nResource Id: 3155",
        "modified_timestamp": 1467093099,
        "_links": {
          "self": {
            "href": "https://apis.sandbox.waytostay.com:25443/properties/015868/availability/4695916030145"
          }
        }
      },
      {
        "id": 6696916030156,
        "status": "unavailable",
        "start_date": "2016-07-09",
        "end_date": "2016-07-13",
        "notes": "Created from Ical\nResource Id: 3155",
        "modified_timestamp": 1467093099,
        "_links": {
          "self": {
            "href": "https://apis.sandbox.waytostay.com:25443/properties/015868/availability/6696916030156"
          }
        }
      },
      {
        "id": 6697916030167,
        "status": "unavailable",
        "start_date": "2016-07-15",
        "end_date": "2016-07-17",
        "notes": "Created from Ical\nResource Id: 3155",
        "modified_timestamp": 1467093099,
        "_links": {
          "self": {
            "href": "https://apis.sandbox.waytostay.com:25443/properties/015868/availability/6697916030167"
          }
        }
      },
      {
        "id": 8698435040128,
        "status": "unavailable",
        "start_date": "2016-07-18",
        "end_date": "2016-07-21",
        "notes": "Created from Ical\nResource Id: 3155",
        "modified_timestamp": 1467093099,
        "_links": {
          "self": {
            "href": "https://apis.sandbox.waytostay.com:25443/properties/015868/availability/8698435040128"
          }
        }
      },
      {
        "id": 8698916030178,
        "status": "unavailable",
        "start_date": "2016-07-21",
        "end_date": "2016-07-25",
        "notes": "Created from Ical\nResource Id: 3155",
        "modified_timestamp": 1467093099,
        "_links": {
          "self": {
            "href": "https://apis.sandbox.waytostay.com:25443/properties/015868/availability/8698916030178"
          }
        }
      },
      {
        "id": 700301850130,
        "status": "unavailable",
        "start_date": "2016-07-28",
        "end_date": "2016-07-31",
        "notes": "Created from Ical\nResource Id: 3155",
        "modified_timestamp": 1467093099,
        "_links": {
          "self": {
            "href": "https://apis.sandbox.waytostay.com:25443/properties/015868/availability/700301850130"
          }
        }
      },
      {
        "id": 8699916030189,
        "status": "unavailable",
        "start_date": "2016-08-01",
        "end_date": "2016-08-02",
        "notes": "Created from Ical\nResource Id: 3155",
        "modified_timestamp": 1467093099,
        "_links": {
          "self": {
            "href": "https://apis.sandbox.waytostay.com:25443/properties/015868/availability/8699916030189"
          }
        }
      },
      {
        "id": 690026030100,
        "status": "unavailable",
        "start_date": "2016-08-02",
        "end_date": "2016-08-07",
        "notes": "Created from Ical\nResource Id: 3155",
        "modified_timestamp": 1467093099,
        "_links": {
          "self": {
            "href": "https://apis.sandbox.waytostay.com:25443/properties/015868/availability/690026030100"
          }
        }
      },
      {
        "id": 691026030111,
        "status": "unavailable",
        "start_date": "2016-08-07",
        "end_date": "2016-08-08",
        "notes": "Created from Ical\nResource Id: 3155",
        "modified_timestamp": 1467093099,
        "_links": {
          "self": {
            "href": "https://apis.sandbox.waytostay.com:25443/properties/015868/availability/691026030111"
          }
        }
      },
      {
        "id": 8698966630178,
        "status": "unavailable",
        "start_date": "2016-08-08",
        "end_date": "2016-08-12",
        "notes": "Created from Ical\nResource Id: 3155",
        "modified_timestamp": 1467093099,
        "_links": {
          "self": {
            "href": "https://apis.sandbox.waytostay.com:25443/properties/015868/availability/8698966630178"
          }
        }
      },
      {
        "id": 2703836050113,
        "status": "unavailable",
        "start_date": "2016-08-12",
        "end_date": "2016-08-18",
        "notes": "Created from Ical\nResource Id: 3155",
        "modified_timestamp": 1467093099,
        "_links": {
          "self": {
            "href": "https://apis.sandbox.waytostay.com:25443/properties/015868/availability/2703836050113"
          }
        }
      },
      {
        "id": 8708773740158,
        "status": "unavailable",
        "start_date": "2016-08-20",
        "end_date": "2016-08-21",
        "notes": "Created from Ical\nResource Id: 3155",
        "modified_timestamp": 1467093099,
        "_links": {
          "self": {
            "href": "https://apis.sandbox.waytostay.com:25443/properties/015868/availability/8708773740158"
          }
        }
      },
      {
        "id": 2692227230142,
        "status": "unavailable",
        "start_date": "2016-08-25",
        "end_date": "2016-08-28",
        "notes": "Created from Ical\nResource Id: 3155",
        "modified_timestamp": 1467093099,
        "_links": {
          "self": {
            "href": "https://apis.sandbox.waytostay.com:25443/properties/015868/availability/2692227230142"
          }
        }
      },
      {
        "id": 2693026030133,
        "status": "unavailable",
        "start_date": "2016-09-02",
        "end_date": "2016-09-05",
        "notes": "Created from Ical\nResource Id: 3155",
        "modified_timestamp": 1467093099,
        "_links": {
          "self": {
            "href": "https://apis.sandbox.waytostay.com:25443/properties/015868/availability/2693026030133"
          }
        }
      },
      {
        "id": 4694026030144,
        "status": "unavailable",
        "start_date": "2016-09-09",
        "end_date": "2016-09-11",
        "notes": "Created from Ical\nResource Id: 3155",
        "modified_timestamp": 1467093099,
        "_links": {
          "self": {
            "href": "https://apis.sandbox.waytostay.com:25443/properties/015868/availability/4694026030144"
          }
        }
      },
      {
        "id": 2693786130103,
        "status": "unavailable",
        "start_date": "2016-09-17",
        "end_date": "2016-09-25",
        "notes": "Created from Ical\nResource Id: 3155",
        "modified_timestamp": 1467093099,
        "_links": {
          "self": {
            "href": "https://apis.sandbox.waytostay.com:25443/properties/015868/availability/2693786130103"
          }
        }
      },
      {
        "id": 6696257630186,
        "status": "unavailable",
        "start_date": "2016-09-26",
        "end_date": "2016-09-30",
        "notes": "Created from Ical\nResource Id: 3155",
        "modified_timestamp": 1467093099,
        "_links": {
          "self": {
            "href": "https://apis.sandbox.waytostay.com:25443/properties/015868/availability/6696257630186"
          }
        }
      },
      {
        "id": 691494330151,
        "status": "unavailable",
        "start_date": "2016-10-12",
        "end_date": "2016-10-14",
        "notes": "Created from Ical\nResource Id: 3155",
        "modified_timestamp": 1467093099,
        "_links": {
          "self": {
            "href": "https://apis.sandbox.waytostay.com:25443/properties/015868/availability/691494330151"
          }
        }
      },
      {
        "id": 4695026030155,
        "status": "unavailable",
        "start_date": "2016-10-28",
        "end_date": "2016-10-30",
        "notes": "Created from Ical\nResource Id: 3155",
        "modified_timestamp": 1467093099,
        "_links": {
          "self": {
            "href": "https://apis.sandbox.waytostay.com:25443/properties/015868/availability/4695026030155"
          }
        }
      },
      {
        "id": 2702625940182,
        "status": "unavailable",
        "start_date": "2016-11-18",
        "end_date": "2016-11-20",
        "notes": "Created from Ical\nResource Id: 3155",
        "modified_timestamp": 1467093099,
        "_links": {
          "self": {
            "href": "https://apis.sandbox.waytostay.com:25443/properties/015868/availability/2702625940182"
          }
        }
      },
      {
        "id": 2712527260172,
        "status": "unavailable",
        "start_date": "2017-05-23",
        "end_date": "2017-05-29",
        "notes": "Created from Ical\nResource Id: 3155",
        "modified_timestamp": 1467093099,
        "_links": {
          "self": {
            "href": "https://apis.sandbox.waytostay.com:25443/properties/015868/availability/2712527260172"
          }
        }
      }
    ]
  },
  "page_count": 2,
  "page_size": 25,
  "total_items": 27,
  "page": 1
}
